Curso-Banco-Central.utf8
…
Es muy poderoso y flexible

Se carga junto al tidyverse

No es la única opción en R para graficar

Datos

library(gapminder)
data(gapminder)
paises <- gapminder %>% 
  filter(year == max(year))
paises

## # A tibble: 142 x 6
##    country     continent  year lifeExp       pop gdpPercap
##    <fct>       <fct>     <int>   <dbl>     <int>     <dbl>
##  1 Afghanistan Asia       2007    43.8  31889923      975.
##  2 Albania     Europe     2007    76.4   3600523     5937.
##  3 Algeria     Africa     2007    72.3  33333216     6223.
##  4 Angola      Africa     2007    42.7  12420476     4797.
##  5 Argentina   Americas   2007    75.3  40301927    12779.
##  6 Australia   Oceania    2007    81.2  20434176    34435.
##  7 Austria     Europe     2007    79.8   8199783    36126.
##  8 Bahrain     Asia       2007    75.6    708573    29796.
##  9 Bangladesh  Asia       2007    64.1 150448339     1391.
## 10 Belgium     Europe     2007    79.4  10392226    33693.
## # ... with 132 more rows
…
Modelo Poisson Zero-Inflado

Este tipo de modelo es acorde cuando los datos de conteo poseen una alta presencia de observaciones igual a cero.

RecreationDemand %>% group_by(trips) %>%  tally()

## # A tibble: 22 x 2
##    trips     n
##    <dbl> <int>
##  1     0   417
##  2     1    68
##  3     2    38
##  4     3    34
##  5     4    17
##  6     5    13
##  7     6    11
##  8     7     2
##  9     8     8
## 10     9     1
## # ... with 12 more rows
…
